[
    {
        "model": "campaign_trail.global_parameter",
        "pk": 1,
        "fields": {
            "vote_variable": 1.125,
            "max_swing": 0.12,
            "start_point": 0.94,
            "candidate_issue_weight": 10.0,
            "running_mate_issue_weight": 3.0,
            "issue_stance_1_max": -0.71,
            "issue_stance_2_max": -0.3,
            "issue_stance_3_max": -0.125,
            "issue_stance_4_max": 0.125,
            "issue_stance_5_max": 0.3,
            "issue_stance_6_max": 0.71,
            "global_variance": 0.01,
            "state_variance": 0.005,
            "question_count": 25,
            "default_map_color_hex": "#C9C9C9",
            "no_state_map_color_hex": "#999999"
        }
    }
]