[
    {
        "model": "campaign_trail.running_mate",
        "pk": 211,
        "fields": {
            "candidate": 100,
            "running_mate": 91
        }
    },
    {
        "model": "campaign_trail.running_mate",
        "pk": 212,
        "fields": {
            "candidate": 200,
            "running_mate": 92
        }
    },
    {
        "model": "campaign_trail.running_mate",
        "pk": 213,
        "fields": {
            "candidate": 300,
            "running_mate": 93
        }
    },
    {
        "model": "campaign_trail.running_mate",
        "pk": 214,
        "fields": {
            "candidate": 400,
            "running_mate": 94
        }
    }
]