[
	{
		"model": "campaign_trail.state",
		"pk": 1000,
		"fields": {
			"name": "alabama",
			"abbr": "AL",
			"electoral_votes": 1,
			"popular_votes": 1,
			"poll_closing_time": 0,
			"winner_take_all_flg": 1,
			"election": 20
		}
	},
	{
		"model": "campaign_trail.state",
		"pk": 1001,
		"fields": {
			"name": "arizona",
			"abbr": "AR",
			"electoral_votes": 1,
			"popular_votes": 1,
			"poll_closing_time": 0,
			"winner_take_all_flg": 1,
			"election": 20
		}
	},
	{
		"model": "campaign_trail.state",
		"pk": 1002,
		"fields": {
			"name": "ayiti",
			"abbr": "AY",
			"electoral_votes": 1,
			"popular_votes": 1,
			"poll_closing_time": 0,
			"winner_take_all_flg": 1,
			"election": 20
		}
	},
	{
		"model": "campaign_trail.state",
		"pk": 1003,
		"fields": {
			"name": "california",
			"abbr": "CA",
			"electoral_votes": 1,
			"popular_votes": 1,
			"poll_closing_time": 0,
			"winner_take_all_flg": 1,
			"election": 20
		}
	},
	{
		"model": "campaign_trail.state",
		"pk": 1004,
		"fields": {
			"name": "caddo",
			"abbr": "CD",
			"electoral_votes": 1,
			"popular_votes": 1,
			"poll_closing_time": 0,
			"winner_take_all_flg": 1,
			"election": 20
		}
	},
	{
		"model": "campaign_trail.state",
		"pk": 1005,
		"fields": {
			"name": "charity",
			"abbr": "CH",
			"electoral_votes": 1,
			"popular_votes": 1,
			"poll_closing_time": 0,
			"winner_take_all_flg": 1,
			"election": 20
		}
	},
	{
		"model": "campaign_trail.state",
		"pk": 1006,
		"fields": {
			"name": "cheyenne",
			"abbr": "CH",
			"electoral_votes": 1,
			"popular_votes": 1,
			"poll_closing_time": 0,
			"winner_take_all_flg": 1,
			"election": 20
		}
	},
	{
		"model": "campaign_trail.state",
		"pk": 1007,
		"fields": {
			"name": "connecticut",
			"abbr": "CN",
			"electoral_votes": 1,
			"popular_votes": 1,
			"poll_closing_time": 0,
			"winner_take_all_flg": 1,
			"election": 20
		}
	},
	{
		"model": "campaign_trail.state",
		"pk": 1008,
		"fields": {
			"name": "cuba",
			"abbr": "CU",
			"electoral_votes": 1,
			"popular_votes": 1,
			"poll_closing_time": 0,
			"winner_take_all_flg": 1,
			"election": 20
		}
	},
	{
		"model": "campaign_trail.state",
		"pk": 1009,
		"fields": {
			"name": "delaware",
			"abbr": "DE",
			"electoral_votes": 1,
			"popular_votes": 1,
			"poll_closing_time": 0,
			"winner_take_all_flg": 1,
			"election": 20
		}
	},
	{
		"model": "campaign_trail.state",
		"pk": 1010,
		"fields": {
			"name": "dallas",
			"abbr": "DS",
			"electoral_votes": 1,
			"popular_votes": 1,
			"poll_closing_time": 0,
			"winner_take_all_flg": 1,
			"election": 20
		}
	},
	{
		"model": "campaign_trail.state",
		"pk": 1011,
		"fields": {
			"name": "florida",
			"abbr": "FL",
			"electoral_votes": 1,
			"popular_votes": 1,
			"poll_closing_time": 0,
			"winner_take_all_flg": 1,
			"election": 20
		}
	},
	{
		"model": "campaign_trail.state",
		"pk": 1012,
		"fields": {
			"name": "iowa",
			"abbr": "IA",
			"electoral_votes": 1,
			"popular_votes": 1,
			"poll_closing_time": 0,
			"winner_take_all_flg": 1,
			"election": 20
		}
	},
	{
		"model": "campaign_trail.state",
		"pk": 1013,
		"fields": {
			"name": "illinois",
			"abbr": "IL",
			"electoral_votes": 1,
			"popular_votes": 1,
			"poll_closing_time": 0,
			"winner_take_all_flg": 1,
			"election": 20
		}
	},
	{
		"model": "campaign_trail.state",
		"pk": 1014,
		"fields": {
			"name": "kansas",
			"abbr": "KS",
			"electoral_votes": 1,
			"popular_votes": 1,
			"poll_closing_time": 0,
			"winner_take_all_flg": 1,
			"election": 20
		}
	},
	{
		"model": "campaign_trail.state",
		"pk": 1015,
		"fields": {
			"name": "kentucky",
			"abbr": "KY",
			"electoral_votes": 1,
			"popular_votes": 1,
			"poll_closing_time": 0,
			"winner_take_all_flg": 1,
			"election": 20
		}
	},
	{
		"model": "campaign_trail.state",
		"pk": 1016,
		"fields": {
			"name": "louisiana",
			"abbr": "LA",
			"electoral_votes": 1,
			"popular_votes": 1,
			"poll_closing_time": 0,
			"winner_take_all_flg": 1,
			"election": 20
		}
	},
	{
		"model": "campaign_trail.state",
		"pk": 1017,
		"fields": {
			"name": "massachusetts",
			"abbr": "MA",
			"electoral_votes": 1,
			"popular_votes": 1,
			"poll_closing_time": 0,
			"winner_take_all_flg": 1,
			"election": 20
		}
	},
	{
		"model": "campaign_trail.state",
		"pk": 1018,
		"fields": {
			"name": "miami",
			"abbr": "MM",
			"electoral_votes": 1,
			"popular_votes": 1,
			"poll_closing_time": 0,
			"winner_take_all_flg": 1,
			"election": 20
		}
	},
	{
		"model": "campaign_trail.state",
		"pk": 1019,
		"fields": {
			"name": "maryland",
			"abbr": "MD",
			"electoral_votes": 1,
			"popular_votes": 1,
			"poll_closing_time": 0,
			"winner_take_all_flg": 1,
			"election": 20
		}
	},
	{
		"model": "campaign_trail.state",
		"pk": 1020,
		"fields": {
			"name": "maine",
			"abbr": "ME",
			"electoral_votes": 1,
			"popular_votes": 1,
			"poll_closing_time": 0,
			"winner_take_all_flg": 1,
			"election": 20
		}
	},
	{
		"model": "campaign_trail.state",
		"pk": 1021,
		"fields": {
			"name": "michigan",
			"abbr": "MI",
			"electoral_votes": 1,
			"popular_votes": 1,
			"poll_closing_time": 0,
			"winner_take_all_flg": 1,
			"election": 20
		}
	},
	{
		"model": "campaign_trail.state",
		"pk": 1022,
		"fields": {
			"name": "minnesota",
			"abbr": "MN",
			"electoral_votes": 1,
			"popular_votes": 1,
			"poll_closing_time": 0,
			"winner_take_all_flg": 1,
			"election": 20
		}
	},
	{
		"model": "campaign_trail.state",
		"pk": 1023,
		"fields": {
			"name": "missouri",
			"abbr": "MO",
			"electoral_votes": 1,
			"popular_votes": 1,
			"poll_closing_time": 0,
			"winner_take_all_flg": 1,
			"election": 20
		}
	},
	{
		"model": "campaign_trail.state",
		"pk": 1024,
		"fields": {
			"name": "mississippi",
			"abbr": "MS",
			"electoral_votes": 1,
			"popular_votes": 1,
			"poll_closing_time": 0,
			"winner_take_all_flg": 1,
			"election": 20
		}
	},
	{
		"model": "campaign_trail.state",
		"pk": 1025,
		"fields": {
			"name": "northcarolina",
			"abbr": "NC",
			"electoral_votes": 1,
			"popular_votes": 1,
			"poll_closing_time": 0,
			"winner_take_all_flg": 1,
			"election": 20
		}
	},
	{
		"model": "campaign_trail.state",
		"pk": 1026,
		"fields": {
			"name": "nebraksa",
			"abbr": "NE",
			"electoral_votes": 1,
			"popular_votes": 1,
			"poll_closing_time": 0,
			"winner_take_all_flg": 1,
			"election": 20
		}
	},
	{
		"model": "campaign_trail.state",
		"pk": 1027,
		"fields": {
			"name": "newhampshire",
			"abbr": "NH",
			"electoral_votes": 1,
			"popular_votes": 1,
			"poll_closing_time": 0,
			"winner_take_all_flg": 1,
			"election": 20
		}
	},
	{
		"model": "campaign_trail.state",
		"pk": 1028,
		"fields": {
			"name": "newjersey",
			"abbr": "NJ",
			"electoral_votes": 1,
			"popular_votes": 1,
			"poll_closing_time": 0,
			"winner_take_all_flg": 1,
			"election": 20
		}
	},
	{
		"model": "campaign_trail.state",
		"pk": 1029,
		"fields": {
			"name": "newmexico",
			"abbr": "NM",
			"electoral_votes": 1,
			"popular_votes": 1,
			"poll_closing_time": 0,
			"winner_take_all_flg": 1,
			"election": 20
		}
	},
	{
		"model": "campaign_trail.state",
		"pk": 1030,
		"fields": {
			"name": "neosho",
			"abbr": "NO",
			"electoral_votes": 1,
			"popular_votes": 1,
			"poll_closing_time": 0,
			"winner_take_all_flg": 1,
			"election": 20
		}
	},
	{
		"model": "campaign_trail.state",
		"pk": 1031,
		"fields": {
			"name": "nevada",
			"abbr": "NV",
			"electoral_votes": 1,
			"popular_votes": 1,
			"poll_closing_time": 0,
			"winner_take_all_flg": 1,
			"election": 20
		}
	},
	{
		"model": "campaign_trail.state",
		"pk": 1032,
		"fields": {
			"name": "newyork",
			"abbr": "NY",
			"electoral_votes": 1,
			"popular_votes": 1,
			"poll_closing_time": 0,
			"winner_take_all_flg": 1,
			"election": 20
		}
	},
	{
		"model": "campaign_trail.state",
		"pk": 1033,
		"fields": {
			"name": "ohio",
			"abbr": "OH",
			"electoral_votes": 1,
			"popular_votes": 1,
			"poll_closing_time": 0,
			"winner_take_all_flg": 1,
			"election": 20
		}
	},
	{
		"model": "campaign_trail.state",
		"pk": 1034,
		"fields": {
			"name": "oregon",
			"abbr": "OR",
			"electoral_votes": 1,
			"popular_votes": 1,
			"poll_closing_time": 0,
			"winner_take_all_flg": 1,
			"election": 20
		}
	},
	{
		"model": "campaign_trail.state",
		"pk": 1035,
		"fields": {
			"name": "pennsylvania",
			"abbr": "PA",
			"electoral_votes": 1,
			"popular_votes": 1,
			"poll_closing_time": 0,
			"winner_take_all_flg": 1,
			"election": 20
		}
	},
	{
		"model": "campaign_trail.state",
		"pk": 1036,
		"fields": {
			"name": "polk",
			"abbr": "PK",
			"electoral_votes": 1,
			"popular_votes": 1,
			"poll_closing_time": 0,
			"winner_take_all_flg": 1,
			"election": 20
		}
	},
	{
		"model": "campaign_trail.state",
		"pk": 1037,
		"fields": {
			"name": "rhodeisland",
			"abbr": "RI",
			"electoral_votes": 1,
			"popular_votes": 1,
			"poll_closing_time": 0,
			"winner_take_all_flg": 1,
			"election": 20
		}
	},
	{
		"model": "campaign_trail.state",
		"pk": 1038,
		"fields": {
			"name": "salmon",
			"abbr": "SA",
			"electoral_votes": 1,
			"popular_votes": 1,
			"poll_closing_time": 0,
			"winner_take_all_flg": 1,
			"election": 20
		}
	},
	{
		"model": "campaign_trail.state",
		"pk": 1039,
		"fields": {
			"name": "southcarolina",
			"abbr": "SC",
			"electoral_votes": 1,
			"popular_votes": 1,
			"poll_closing_time": 0,
			"winner_take_all_flg": 1,
			"election": 20
		}
	},
	{
		"model": "campaign_trail.state",
		"pk": 1040,
		"fields": {
			"name": "shoshone",
			"abbr": "SH",
			"electoral_votes": 1,
			"popular_votes": 1,
			"poll_closing_time": 0,
			"winner_take_all_flg": 1,
			"election": 20
		}
	},
	{
		"model": "campaign_trail.state",
		"pk": 1041,
		"fields": {
			"name": "superior",
			"abbr": "SP",
			"electoral_votes": 1,
			"popular_votes": 1,
			"poll_closing_time": 0,
			"winner_take_all_flg": 1,
			"election": 20
		}
	},
	{
		"model": "campaign_trail.state",
		"pk": 1042,
		"fields": {
			"name": "tennessee",
			"abbr": "TN",
			"electoral_votes": 1,
			"popular_votes": 1,
			"poll_closing_time": 0,
			"winner_take_all_flg": 1,
			"election": 20
		}
	},
	{
		"model": "campaign_trail.state",
		"pk": 1043,
		"fields": {
			"name": "texas",
			"abbr": "TX",
			"electoral_votes": 1,
			"popular_votes": 1,
			"poll_closing_time": 0,
			"winner_take_all_flg": 1,
			"election": 20
		}
	},
	{
		"model": "campaign_trail.state",
		"pk": 1044,
		"fields": {
			"name": "virginia",
			"abbr": "VA",
			"electoral_votes": 1,
			"popular_votes": 1,
			"poll_closing_time": 0,
			"winner_take_all_flg": 1,
			"election": 20
		}
	},
	{
		"model": "campaign_trail.state",
		"pk": 1045,
		"fields": {
			"name": "vermont",
			"abbr": "VT",
			"electoral_votes": 1,
			"popular_votes": 1,
			"poll_closing_time": 0,
			"winner_take_all_flg": 1,
			"election": 20
		}
	},
	{
		"model": "campaign_trail.state",
		"pk": 1046,
		"fields": {
			"name": "washington",
			"abbr": "WA",
			"electoral_votes": 1,
			"popular_votes": 1,
			"poll_closing_time": 0,
			"winner_take_all_flg": 1,
			"election": 20
		}
	},
	{
		"model": "campaign_trail.state",
		"pk": 1047,
		"fields": {
			"name": "westflorida",
			"abbr": "WF",
			"electoral_votes": 1,
			"popular_votes": 1,
			"poll_closing_time": 0,
			"winner_take_all_flg": 1,
			"election": 20
		}
	},
	{
		"model": "campaign_trail.state",
		"pk": 1048,
		"fields": {
			"name": "wisconsin",
			"abbr": "WI",
			"electoral_votes": 1,
			"popular_votes": 1,
			"poll_closing_time": 0,
			"winner_take_all_flg": 1,
			"election": 20
		}
	},
	{
		"model": "campaign_trail.state",
		"pk": 1049,
		"fields": {
			"name": "walker",
			"abbr": "WK",
			"electoral_votes": 1,
			"popular_votes": 1,
			"poll_closing_time": 0,
			"winner_take_all_flg": 1,
			"election": 20
		}
	},
	{
		"model": "campaign_trail.state",
		"pk": 1050,
		"fields": {
			"name": "westvirginia",
			"abbr": "WV",
			"electoral_votes": 1,
			"popular_votes": 1,
			"poll_closing_time": 0,
			"winner_take_all_flg": 1,
			"election": 20
		}
	},
	{
		"model": "campaign_trail.state",
		"pk": 1051,
		"fields": {
			"name": "yucatan",
			"abbr": "YC",
			"electoral_votes": 1,
			"popular_votes": 1,
			"poll_closing_time": 0,
			"winner_take_all_flg": 1,
			"election": 20
		}
	},
	{
		"model": "campaign_trail.state",
		"pk": 1052,
		"fields": {
			"name": "yutia",
			"abbr": "YT",
			"electoral_votes": 1,
			"popular_votes": 1,
			"poll_closing_time": 0,
			"winner_take_all_flg": 1,
			"election": 20
		}
	}	
]