[
	{
		"model": "campaign_trail.state_issue_score",
		"pk": 3000,
		"fields": {
			"state": 1000,
			"issue": 100,
			"state_issue_score": -0.7,
			"weight": 1.0
		}
	},
	{
		"model": "campaign_trail.state_issue_score",
		"pk": 3001,
		"fields": {
			"state": 1000,
			"issue": 101,
			"state_issue_score": -0.35,
			"weight": 0.5
		}
	},
	{
		"model": "campaign_trail.state_issue_score",
		"pk": 3002,
		"fields": {
			"state": 1000,
			"issue": 102,
			"state_issue_score": -0.4,
			"weight": 1.0
		}
	},
	{
		"model": "campaign_trail.state_issue_score",
		"pk": 3003,
		"fields": {
			"state": 1000,
			"issue": 103,
			"state_issue_score": -0.65,
			"weight": 1.0
		}
	},
	{
		"model": "campaign_trail.state_issue_score",
		"pk": 3004,
		"fields": {
			"state": 1000,
			"issue": 104,
			"state_issue_score": -0.55,
			"weight": 1.5
		}
	},
	{
		"model": "campaign_trail.state_issue_score",
		"pk": 3005,
		"fields": {
			"state": 1001,
			"issue": 100,
			"state_issue_score": -0.7,
			"weight": 1.0
		}
	},
	{
		"model": "campaign_trail.state_issue_score",
		"pk": 3006,
		"fields": {
			"state": 1001,
			"issue": 101,
			"state_issue_score": -0.5,
			"weight": 0.5
		}
	},
	{
		"model": "campaign_trail.state_issue_score",
		"pk": 3007,
		"fields": {
			"state": 1001,
			"issue": 102,
			"state_issue_score": 0.1,
			"weight": 1.0
		}
	},
	{
		"model": "campaign_trail.state_issue_score",
		"pk": 3008,
		"fields": {
			"state": 1001,
			"issue": 103,
			"state_issue_score": 0.15,
			"weight": 1.0
		}
	},
	{
		"model": "campaign_trail.state_issue_score",
		"pk": 3009,
		"fields": {
			"state": 1001,
			"issue": 104,
			"state_issue_score": -0.1,
			"weight": 1.5
		}
	},
	{
		"model": "campaign_trail.state_issue_score",
		"pk": 3010,
		"fields": {
			"state": 1002,
			"issue": 100,
			"state_issue_score": -0.55,
			"weight": 1.0
		}
	},
	{
		"model": "campaign_trail.state_issue_score",
		"pk": 3011,
		"fields": {
			"state": 1002,
			"issue": 101,
			"state_issue_score": -0.2,
			"weight": 0.5
		}
	},
	{
		"model": "campaign_trail.state_issue_score",
		"pk": 3012,
		"fields": {
			"state": 1002,
			"issue": 102,
			"state_issue_score": 0.0,
			"weight": 1.0
		}
	},
	{
		"model": "campaign_trail.state_issue_score",
		"pk": 3013,
		"fields": {
			"state": 1002,
			"issue": 103,
			"state_issue_score": 0.0,
			"weight": 1.0
		}
	},
	{
		"model": "campaign_trail.state_issue_score",
		"pk": 3014,
		"fields": {
			"state": 1002,
			"issue": 104,
			"state_issue_score": 0.2,
			"weight": 1.5
		}
	},
	{
		"model": "campaign_trail.state_issue_score",
		"pk": 3020,
		"fields": {
			"state": 1004,
			"issue": 100,
			"state_issue_score": 0.55,
			"weight": 1.0
		}
	},
	{
		"model": "campaign_trail.state_issue_score",
		"pk": 3021,
		"fields": {
			"state": 1004,
			"issue": 101,
			"state_issue_score": 0.8,
			"weight": 0.5
		}
	},
	{
		"model": "campaign_trail.state_issue_score",
		"pk": 3022,
		"fields": {
			"state": 1004,
			"issue": 102,
			"state_issue_score": 0.8,
			"weight": 1.0
		}
	},
	{
		"model": "campaign_trail.state_issue_score",
		"pk": 3023,
		"fields": {
			"state": 1004,
			"issue": 103,
			"state_issue_score": 0.5,
			"weight": 1.0
		}
	},
	{
		"model": "campaign_trail.state_issue_score",
		"pk": 3024,
		"fields": {
			"state": 1004,
			"issue": 104,
			"state_issue_score": 0.55,
			"weight": 1.5
		}
	},
	{
		"model": "campaign_trail.state_issue_score",
		"pk": 3030,
		"fields": {
			"state": 1006,
			"issue": 100,
			"state_issue_score": 0.5,
			"weight": 1.0
		}
	},
	{
		"model": "campaign_trail.state_issue_score",
		"pk": 3031,
		"fields": {
			"state": 1006,
			"issue": 101,
			"state_issue_score": 0.8,
			"weight": 0.5
		}
	},
	{
		"model": "campaign_trail.state_issue_score",
		"pk": 3032,
		"fields": {
			"state": 1006,
			"issue": 102,
			"state_issue_score": 0.8,
			"weight": 1.0
		}
	},
	{
		"model": "campaign_trail.state_issue_score",
		"pk": 3033,
		"fields": {
			"state": 1006,
			"issue": 103,
			"state_issue_score": 0.6,
			"weight": 1.0
		}
	},
	{
		"model": "campaign_trail.state_issue_score",
		"pk": 3034,
		"fields": {
			"state": 1006,
			"issue": 104,
			"state_issue_score": 0.5,
			"weight": 1.5
		}
	},
	{
		"model": "campaign_trail.state_issue_score",
		"pk": 3035,
		"fields": {
			"state": 1007,
			"issue": 100,
			"state_issue_score": 0.375,
			"weight": 1.0
		}
	},
	{
		"model": "campaign_trail.state_issue_score",
		"pk": 3036,
		"fields": {
			"state": 1007,
			"issue": 101,
			"state_issue_score": 0.8,
			"weight": 0.5
		}
	},
	{
		"model": "campaign_trail.state_issue_score",
		"pk": 3037,
		"fields": {
			"state": 1007,
			"issue": 102,
			"state_issue_score": 0.8,
			"weight": 1.0
		}
	},
	{
		"model": "campaign_trail.state_issue_score",
		"pk": 3038,
		"fields": {
			"state": 1007,
			"issue": 103,
			"state_issue_score": 0.5,
			"weight": 1.0
		}
	},
	{
		"model": "campaign_trail.state_issue_score",
		"pk": 3039,
		"fields": {
			"state": 1007,
			"issue": 104,
			"state_issue_score": 0.45,
			"weight": 1.5
		}
	},
	{
		"model": "campaign_trail.state_issue_score",
		"pk": 3040,
		"fields": {
			"state": 1008,
			"issue": 100,
			"state_issue_score": -0.2,
			"weight": 1.0
		}
	},
	{
		"model": "campaign_trail.state_issue_score",
		"pk": 3041,
		"fields": {
			"state": 1008,
			"issue": 101,
			"state_issue_score": -0.2,
			"weight": 0.5
		}
	},
	{
		"model": "campaign_trail.state_issue_score",
		"pk": 3042,
		"fields": {
			"state": 1008,
			"issue": 102,
			"state_issue_score": 0.8,
			"weight": 1.0
		}
	},
	{
		"model": "campaign_trail.state_issue_score",
		"pk": 3043,
		"fields": {
			"state": 1008,
			"issue": 103,
			"state_issue_score": 0.1,
			"weight": 1.0
		}
	},
	{
		"model": "campaign_trail.state_issue_score",
		"pk": 3044,
		"fields": {
			"state": 1008,
			"issue": 104,
			"state_issue_score": 0.1,
			"weight": 1.5
		}
	},
	{
		"model": "campaign_trail.state_issue_score",
		"pk": 3050,
		"fields": {
			"state": 1010,
			"issue": 100,
			"state_issue_score": 0.45,
			"weight": 1.0
		}
	},
	{
		"model": "campaign_trail.state_issue_score",
		"pk": 3051,
		"fields": {
			"state": 1010,
			"issue": 101,
			"state_issue_score": 0.8,
			"weight": 0.5
		}
	},
	{
		"model": "campaign_trail.state_issue_score",
		"pk": 3052,
		"fields": {
			"state": 1010,
			"issue": 102,
			"state_issue_score": 0.8,
			"weight": 1.0
		}
	},
	{
		"model": "campaign_trail.state_issue_score",
		"pk": 3053,
		"fields": {
			"state": 1010,
			"issue": 103,
			"state_issue_score": 0.6,
			"weight": 1.0
		}
	},
	{
		"model": "campaign_trail.state_issue_score",
		"pk": 3054,
		"fields": {
			"state": 1010,
			"issue": 104,
			"state_issue_score": 0.6,
			"weight": 1.5
		}
	},
	{
		"model": "campaign_trail.state_issue_score",
		"pk": 3065,
		"fields": {
			"state": 1013,
			"issue": 100,
			"state_issue_score": -0.55,
			"weight": 1.0
		}
	},
	{
		"model": "campaign_trail.state_issue_score",
		"pk": 3066,
		"fields": {
			"state": 1013,
			"issue": 101,
			"state_issue_score": -0.5,
			"weight": 0.75
		}
	},
	{
		"model": "campaign_trail.state_issue_score",
		"pk": 3067,
		"fields": {
			"state": 1013,
			"issue": 102,
			"state_issue_score": 0.8,
			"weight": 1.0
		}
	},
	{
		"model": "campaign_trail.state_issue_score",
		"pk": 3068,
		"fields": {
			"state": 1013,
			"issue": 103,
			"state_issue_score": -0.25,
			"weight": 1.0
		}
	},
	{
		"model": "campaign_trail.state_issue_score",
		"pk": 3069,
		"fields": {
			"state": 1013,
			"issue": 104,
			"state_issue_score": -0.33,
			"weight": 1.5
		}
	},
	{
		"model": "campaign_trail.state_issue_score",
		"pk": 3090,
		"fields": {
			"state": 1018,
			"issue": 100,
			"state_issue_score": 0.25,
			"weight": 1.0
		}
	},
	{
		"model": "campaign_trail.state_issue_score",
		"pk": 3091,
		"fields": {
			"state": 1018,
			"issue": 101,
			"state_issue_score": 0.8,
			"weight": 0.25
		}
	},
	{
		"model": "campaign_trail.state_issue_score",
		"pk": 3092,
		"fields": {
			"state": 1018,
			"issue": 102,
			"state_issue_score": 0.8,
			"weight": 1.0
		}
	},
	{
		"model": "campaign_trail.state_issue_score",
		"pk": 3093,
		"fields": {
			"state": 1018,
			"issue": 103,
			"state_issue_score": 0.3,
			"weight": 1.0
		}
	},
	{
		"model": "campaign_trail.state_issue_score",
		"pk": 3094,
		"fields": {
			"state": 1018,
			"issue": 104,
			"state_issue_score": -0.3,
			"weight": 1.5
		}
	},
	{
		"model": "campaign_trail.state_issue_score",
		"pk": 3095,
		"fields": {
			"state": 1019,
			"issue": 100,
			"state_issue_score": 0.7,
			"weight": 1.0
		}
	},
	{
		"model": "campaign_trail.state_issue_score",
		"pk": 3096,
		"fields": {
			"state": 1019,
			"issue": 101,
			"state_issue_score": 0.8,
			"weight": 0.5
		}
	},
	{
		"model": "campaign_trail.state_issue_score",
		"pk": 3097,
		"fields": {
			"state": 1019,
			"issue": 102,
			"state_issue_score": 0.8,
			"weight": 1.0
		}
	},
	{
		"model": "campaign_trail.state_issue_score",
		"pk": 3098,
		"fields": {
			"state": 1019,
			"issue": 103,
			"state_issue_score": 0.5,
			"weight": 1.0
		}
	},
	{
		"model": "campaign_trail.state_issue_score",
		"pk": 3099,
		"fields": {
			"state": 1019,
			"issue": 104,
			"state_issue_score": 0.7,
			"weight": 1.5
		}
	},
	{
		"model": "campaign_trail.state_issue_score",
		"pk": 3100,
		"fields": {
			"state": 1020,
			"issue": 100,
			"state_issue_score": 0.7,
			"weight": 1.0
		}
	},
	{
		"model": "campaign_trail.state_issue_score",
		"pk": 3101,
		"fields": {
			"state": 1020,
			"issue": 101,
			"state_issue_score": 0.8,
			"weight": 0.5
		}
	},
	{
		"model": "campaign_trail.state_issue_score",
		"pk": 3102,
		"fields": {
			"state": 1020,
			"issue": 102,
			"state_issue_score": 0.8,
			"weight": 1.0
		}
	},
	{
		"model": "campaign_trail.state_issue_score",
		"pk": 3103,
		"fields": {
			"state": 1020,
			"issue": 103,
			"state_issue_score": 0.65,
			"weight": 1.0
		}
	},
	{
		"model": "campaign_trail.state_issue_score",
		"pk": 3104,
		"fields": {
			"state": 1020,
			"issue": 104,
			"state_issue_score": 0.6,
			"weight": 1.5
		}
	},
	{
		"model": "campaign_trail.state_issue_score",
		"pk": 3105,
		"fields": {
			"state": 1021,
			"issue": 100,
			"state_issue_score": 0.2,
			"weight": 1.0
		}
	},
	{
		"model": "campaign_trail.state_issue_score",
		"pk": 3106,
		"fields": {
			"state": 1021,
			"issue": 101,
			"state_issue_score": 0.2,
			"weight": 2.0
		}
	},
	{
		"model": "campaign_trail.state_issue_score",
		"pk": 3107,
		"fields": {
			"state": 1021,
			"issue": 102,
			"state_issue_score": 0.8,
			"weight": 1.0
		}
	},
	{
		"model": "campaign_trail.state_issue_score",
		"pk": 3108,
		"fields": {
			"state": 1021,
			"issue": 103,
			"state_issue_score": 0.3,
			"weight": 1.0
		}
	},
	{
		"model": "campaign_trail.state_issue_score",
		"pk": 3109,
		"fields": {
			"state": 1021,
			"issue": 104,
			"state_issue_score": 0.25,
			"weight": 1.5
		}
	},
	{
		"model": "campaign_trail.state_issue_score",
		"pk": 3110,
		"fields": {
			"state": 1022,
			"issue": 100,
			"state_issue_score": 0.25,
			"weight": 1.0
		}
	},
	{
		"model": "campaign_trail.state_issue_score",
		"pk": 3111,
		"fields": {
			"state": 1022,
			"issue": 101,
			"state_issue_score": 0.2,
			"weight": 0.75
		}
	},
	{
		"model": "campaign_trail.state_issue_score",
		"pk": 3112,
		"fields": {
			"state": 1022,
			"issue": 102,
			"state_issue_score": 0.8,
			"weight": 1.0
		}
	},
	{
		"model": "campaign_trail.state_issue_score",
		"pk": 3113,
		"fields": {
			"state": 1022,
			"issue": 103,
			"state_issue_score": 0.3,
			"weight": 1.0
		}
	},
	{
		"model": "campaign_trail.state_issue_score",
		"pk": 3114,
		"fields": {
			"state": 1022,
			"issue": 104,
			"state_issue_score": -0.25,
			"weight": 1.5
		}
	},
	{
		"model": "campaign_trail.state_issue_score",
		"pk": 317244710,
		"fields": {
			"state": 1040,
			"issue": 100,
			"state_issue_score": 0.25,
			"weight": 1.0
		}
	},
	{
		"model": "campaign_trail.state_issue_score",
		"pk": 311322526731,
		"fields": {
			"state": 1040,
			"issue": 101,
			"state_issue_score": 0.2,
			"weight": 0.75
		}
	},
	{
		"model": "campaign_trail.state_issue_score",
		"pk": 31643474212,
		"fields": {
			"state": 1040,
			"issue": 102,
			"state_issue_score": 0.8,
			"weight": 1.0
		}
	},
	{
		"model": "campaign_trail.state_issue_score",
		"pk": 31186523435543,
		"fields": {
			"state": 1040,
			"issue": 103,
			"state_issue_score": 0.3,
			"weight": 1.0
		}
	},
	{
		"model": "campaign_trail.state_issue_score",
		"pk": 3117541154784,
		"fields": {
			"state": 1040,
			"issue": 104,
			"state_issue_score": -0.25,
			"weight": 1.5
		}
	},
	{
		"model": "campaign_trail.state_issue_score",
		"pk": 3115,
		"fields": {
			"state": 1023,
			"issue": 100,
			"state_issue_score": -0.6,
			"weight": 1.0
		}
	},
	{
		"model": "campaign_trail.state_issue_score",
		"pk": 3116,
		"fields": {
			"state": 1023,
			"issue": 101,
			"state_issue_score": -0.6,
			"weight": 0.5
		}
	},
	{
		"model": "campaign_trail.state_issue_score",
		"pk": 3117,
		"fields": {
			"state": 1023,
			"issue": 102,
			"state_issue_score": -0.8,
			"weight": 1.0
		}
	},
	{
		"model": "campaign_trail.state_issue_score",
		"pk": 3118,
		"fields": {
			"state": 1023,
			"issue": 103,
			"state_issue_score": -0.3,
			"weight": 1.0
		}
	},
	{
		"model": "campaign_trail.state_issue_score",
		"pk": 3119,
		"fields": {
			"state": 1023,
			"issue": 104,
			"state_issue_score": -0.5,
			"weight": 1.5
		}
	},
	{
		"model": "campaign_trail.state_issue_score",
		"pk": 3115382492,
		"fields": {
			"state": 1003,
			"issue": 100,
			"state_issue_score": -0.6,
			"weight": 1.0
		}
	},
	{
		"model": "campaign_trail.state_issue_score",
		"pk": 311604174629,
		"fields": {
			"state": 1003,
			"issue": 101,
			"state_issue_score": -0.6,
			"weight": 0.5
		}
	},
	{
		"model": "campaign_trail.state_issue_score",
		"pk": 3117944294,
		"fields": {
			"state": 1003,
			"issue": 102,
			"state_issue_score": -0.8,
			"weight": 1.0
		}
	},
	{
		"model": "campaign_trail.state_issue_score",
		"pk": 11834929,
		"fields": {
			"state": 1003,
			"issue": 103,
			"state_issue_score": -0.3,
			"weight": 1.0
		}
	},
	{
		"model": "campaign_trail.state_issue_score",
		"pk": 311938423831,
		"fields": {
			"state": 1003,
			"issue": 104,
			"state_issue_score": -0.5,
			"weight": 1.5
		}
	},
	{
		"model": "campaign_trail.state_issue_score",
		"pk": 3120,
		"fields": {
			"state": 1024,
			"issue": 100,
			"state_issue_score": -0.65,
			"weight": 1.0
		}
	},
	{
		"model": "campaign_trail.state_issue_score",
		"pk": 3121,
		"fields": {
			"state": 1024,
			"issue": 101,
			"state_issue_score": -0.4,
			"weight": 0.5
		}
	},
	{
		"model": "campaign_trail.state_issue_score",
		"pk": 3122,
		"fields": {
			"state": 1024,
			"issue": 102,
			"state_issue_score": 0.8,
			"weight": 1.0
		}
	},
	{
		"model": "campaign_trail.state_issue_score",
		"pk": 3123,
		"fields": {
			"state": 1024,
			"issue": 103,
			"state_issue_score": -0.25,
			"weight": 1.0
		}
	},
	{
		"model": "campaign_trail.state_issue_score",
		"pk": 3124,
		"fields": {
			"state": 1024,
			"issue": 104,
			"state_issue_score": -0.25,
			"weight": 1.5
		}
	},
	{
		"model": "campaign_trail.state_issue_score",
		"pk": 3125,
		"fields": {
			"state": 1025,
			"issue": 100,
			"state_issue_score": -0.75,
			"weight": 1.0
		}
	},
	{
		"model": "campaign_trail.state_issue_score",
		"pk": 3126,
		"fields": {
			"state": 1025,
			"issue": 101,
			"state_issue_score": -0.6,
			"weight": 0.5
		}
	},
	{
		"model": "campaign_trail.state_issue_score",
		"pk": 3127,
		"fields": {
			"state": 1025,
			"issue": 102,
			"state_issue_score": 0.8,
			"weight": 1.0
		}
	},
	{
		"model": "campaign_trail.state_issue_score",
		"pk": 3128,
		"fields": {
			"state": 1025,
			"issue": 103,
			"state_issue_score": -0.4,
			"weight": 1.0
		}
	},
	{
		"model": "campaign_trail.state_issue_score",
		"pk": 3129,
		"fields": {
			"state": 1025,
			"issue": 104,
			"state_issue_score": -0.2,
			"weight": 1.5
		}
	},
	{
		"model": "campaign_trail.state_issue_score",
		"pk": 3130,
		"fields": {
			"state": 1026,
			"issue": 100,
			"state_issue_score": -0.7,
			"weight": 1.0
		}
	},
	{
		"model": "campaign_trail.state_issue_score",
		"pk": 3131,
		"fields": {
			"state": 1026,
			"issue": 101,
			"state_issue_score": -0.8,
			"weight": 0.5
		}
	},
	{
		"model": "campaign_trail.state_issue_score",
		"pk": 3132,
		"fields": {
			"state": 1026,
			"issue": 102,
			"state_issue_score": -0.8,
			"weight": 1.0
		}
	},
	{
		"model": "campaign_trail.state_issue_score",
		"pk": 3133,
		"fields": {
			"state": 1026,
			"issue": 103,
			"state_issue_score": -0.6,
			"weight": 1.0
		}
	},
	{
		"model": "campaign_trail.state_issue_score",
		"pk": 3134,
		"fields": {
			"state": 1026,
			"issue": 104,
			"state_issue_score": -0.25,
			"weight": 1.5
		}
	},
	{
		"model": "campaign_trail.state_issue_score",
		"pk": 3135,
		"fields": {
			"state": 1027,
			"issue": 100,
			"state_issue_score": -0.1,
			"weight": 1.0
		}
	},
	{
		"model": "campaign_trail.state_issue_score",
		"pk": 3136,
		"fields": {
			"state": 1027,
			"issue": 101,
			"state_issue_score": 0.2,
			"weight": 0.5
		}
	},
	{
		"model": "campaign_trail.state_issue_score",
		"pk": 3137,
		"fields": {
			"state": 1027,
			"issue": 102,
			"state_issue_score": -1.0,
			"weight": 2.0
		}
	},
	{
		"model": "campaign_trail.state_issue_score",
		"pk": 3138,
		"fields": {
			"state": 1027,
			"issue": 103,
			"state_issue_score": 0.3,
			"weight": 1.0
		}
	},
	{
		"model": "campaign_trail.state_issue_score",
		"pk": 3139,
		"fields": {
			"state": 1027,
			"issue": 104,
			"state_issue_score": 0.05,
			"weight": 1.5
		}
	},
	{
		"model": "campaign_trail.state_issue_score",
		"pk": 3145,
		"fields": {
			"state": 1029,
			"issue": 100,
			"state_issue_score": 0.55,
			"weight": 1.0
		}
	},
	{
		"model": "campaign_trail.state_issue_score",
		"pk": 3146,
		"fields": {
			"state": 1029,
			"issue": 101,
			"state_issue_score": 0.6,
			"weight": 0.5
		}
	},
	{
		"model": "campaign_trail.state_issue_score",
		"pk": 3147,
		"fields": {
			"state": 1029,
			"issue": 102,
			"state_issue_score": 0.5,
			"weight": 1.0
		}
	},
	{
		"model": "campaign_trail.state_issue_score",
		"pk": 3148,
		"fields": {
			"state": 1029,
			"issue": 103,
			"state_issue_score": 0.5,
			"weight": 1.0
		}
	},
	{
		"model": "campaign_trail.state_issue_score",
		"pk": 3149,
		"fields": {
			"state": 1029,
			"issue": 104,
			"state_issue_score": 0.4,
			"weight": 1.5
		}
	},
	{
		"model": "campaign_trail.state_issue_score",
		"pk": 3150,
		"fields": {
			"state": 1030,
			"issue": 100,
			"state_issue_score": 0.15,
			"weight": 1.0
		}
	},
	{
		"model": "campaign_trail.state_issue_score",
		"pk": 3151,
		"fields": {
			"state": 1030,
			"issue": 101,
			"state_issue_score": 0.4,
			"weight": 0.5
		}
	},
	{
		"model": "campaign_trail.state_issue_score",
		"pk": 3152,
		"fields": {
			"state": 1030,
			"issue": 102,
			"state_issue_score": 0.8,
			"weight": 1.0
		}
	},
	{
		"model": "campaign_trail.state_issue_score",
		"pk": 3153,
		"fields": {
			"state": 1030,
			"issue": 103,
			"state_issue_score": 0.45,
			"weight": 1.0
		}
	},
	{
		"model": "campaign_trail.state_issue_score",
		"pk": 3154,
		"fields": {
			"state": 1030,
			"issue": 104,
			"state_issue_score": 0.33,
			"weight": 1.5
		}
	},
	{
		"model": "campaign_trail.state_issue_score",
		"pk": 3155,
		"fields": {
			"state": 1031,
			"issue": 100,
			"state_issue_score": 0.5,
			"weight": 1.0
		}
	},
	{
		"model": "campaign_trail.state_issue_score",
		"pk": 3156,
		"fields": {
			"state": 1031,
			"issue": 101,
			"state_issue_score": 0.8,
			"weight": 0.75
		}
	},
	{
		"model": "campaign_trail.state_issue_score",
		"pk": 3157,
		"fields": {
			"state": 1031,
			"issue": 102,
			"state_issue_score": 0.8,
			"weight": 1.0
		}
	},
	{
		"model": "campaign_trail.state_issue_score",
		"pk": 3158,
		"fields": {
			"state": 1031,
			"issue": 103,
			"state_issue_score": 0.8,
			"weight": 1.0
		}
	},
	{
		"model": "campaign_trail.state_issue_score",
		"pk": 3159,
		"fields": {
			"state": 1031,
			"issue": 104,
			"state_issue_score": 0.575,
			"weight": 1.5
		}
	},
	{
		"model": "campaign_trail.state_issue_score",
		"pk": 3165,
		"fields": {
			"state": 1033,
			"issue": 100,
			"state_issue_score": -0.475,
			"weight": 1.0
		}
	},
	{
		"model": "campaign_trail.state_issue_score",
		"pk": 3166,
		"fields": {
			"state": 1033,
			"issue": 101,
			"state_issue_score": -0.8,
			"weight": 0.5
		}
	},
	{
		"model": "campaign_trail.state_issue_score",
		"pk": 3167,
		"fields": {
			"state": 1033,
			"issue": 102,
			"state_issue_score": 0.8,
			"weight": 1.0
		}
	},
	{
		"model": "campaign_trail.state_issue_score",
		"pk": 3168,
		"fields": {
			"state": 1033,
			"issue": 103,
			"state_issue_score": -0.5,
			"weight": 1.0
		}
	},
	{
		"model": "campaign_trail.state_issue_score",
		"pk": 3169,
		"fields": {
			"state": 1033,
			"issue": 104,
			"state_issue_score": -0.4,
			"weight": 1.5
		}
	},
	{
		"model": "campaign_trail.state_issue_score",
		"pk": 3170,
		"fields": {
			"state": 1034,
			"issue": 100,
			"state_issue_score": 0.0,
			"weight": 1.0
		}
	},
	{
		"model": "campaign_trail.state_issue_score",
		"pk": 3171,
		"fields": {
			"state": 1034,
			"issue": 101,
			"state_issue_score": -0.4,
			"weight": 3.0
		}
	},
	{
		"model": "campaign_trail.state_issue_score",
		"pk": 3172,
		"fields": {
			"state": 1034,
			"issue": 102,
			"state_issue_score": 0.8,
			"weight": 1.0
		}
	},
	{
		"model": "campaign_trail.state_issue_score",
		"pk": 3173,
		"fields": {
			"state": 1034,
			"issue": 103,
			"state_issue_score": -0.2,
			"weight": 1.0
		}
	},
	{
		"model": "campaign_trail.state_issue_score",
		"pk": 3174,
		"fields": {
			"state": 1034,
			"issue": 104,
			"state_issue_score": -0.25,
			"weight": 1.5
		}
	},
	{
		"model": "campaign_trail.state_issue_score",
		"pk": 3185,
		"fields": {
			"state": 1037,
			"issue": 100,
			"state_issue_score": 0.0,
			"weight": 1.0
		}
	},
	{
		"model": "campaign_trail.state_issue_score",
		"pk": 3186,
		"fields": {
			"state": 1037,
			"issue": 101,
			"state_issue_score": 0.0,
			"weight": 0.5
		}
	},
	{
		"model": "campaign_trail.state_issue_score",
		"pk": 3187,
		"fields": {
			"state": 1037,
			"issue": 102,
			"state_issue_score": 0.8,
			"weight": 1.0
		}
	},
	{
		"model": "campaign_trail.state_issue_score",
		"pk": 3188,
		"fields": {
			"state": 1037,
			"issue": 103,
			"state_issue_score": 0.0,
			"weight": 1.0
		}
	},
	{
		"model": "campaign_trail.state_issue_score",
		"pk": 3189,
		"fields": {
			"state": 1037,
			"issue": 104,
			"state_issue_score": -0.15,
			"weight": 1.5
		}
	},
	{
		"model": "campaign_trail.state_issue_score",
		"pk": 3190,
		"fields": {
			"state": 1038,
			"issue": 100,
			"state_issue_score": 0.55,
			"weight": 1.0
		}
	},
	{
		"model": "campaign_trail.state_issue_score",
		"pk": 3191,
		"fields": {
			"state": 1038,
			"issue": 101,
			"state_issue_score": 0.8,
			"weight": 1.0
		}
	},
	{
		"model": "campaign_trail.state_issue_score",
		"pk": 3192,
		"fields": {
			"state": 1038,
			"issue": 102,
			"state_issue_score": 0.8,
			"weight": 1.0
		}
	},
	{
		"model": "campaign_trail.state_issue_score",
		"pk": 3193,
		"fields": {
			"state": 1038,
			"issue": 103,
			"state_issue_score": 0.6,
			"weight": 1.0
		}
	},
	{
		"model": "campaign_trail.state_issue_score",
		"pk": 3194,
		"fields": {
			"state": 1038,
			"issue": 104,
			"state_issue_score": 0.55,
			"weight": 1.5
		}
	},
	{
		"model": "campaign_trail.state_issue_score",
		"pk": 3205,
		"fields": {
			"state": 1041,
			"issue": 100,
			"state_issue_score": -0.65,
			"weight": 1.0
		}
	},
	{
		"model": "campaign_trail.state_issue_score",
		"pk": 3206,
		"fields": {
			"state": 1041,
			"issue": 101,
			"state_issue_score": -0.8,
			"weight": 0.5
		}
	},
	{
		"model": "campaign_trail.state_issue_score",
		"pk": 3207,
		"fields": {
			"state": 1041,
			"issue": 102,
			"state_issue_score": 0.0,
			"weight": 1.0
		}
	},
	{
		"model": "campaign_trail.state_issue_score",
		"pk": 3208,
		"fields": {
			"state": 1041,
			"issue": 103,
			"state_issue_score": -0.5,
			"weight": 1.0
		}
	},
	{
		"model": "campaign_trail.state_issue_score",
		"pk": 3209,
		"fields": {
			"state": 1041,
			"issue": 104,
			"state_issue_score": -0.5,
			"weight": 1.5
		}
	},
	{
		"model": "campaign_trail.state_issue_score",
		"pk": 3210,
		"fields": {
			"state": 1042,
			"issue": 100,
			"state_issue_score": -0.55,
			"weight": 1.0
		}
	},
	{
		"model": "campaign_trail.state_issue_score",
		"pk": 3211,
		"fields": {
			"state": 1042,
			"issue": 101,
			"state_issue_score": -0.4,
			"weight": 0.5
		}
	},
	{
		"model": "campaign_trail.state_issue_score",
		"pk": 3212,
		"fields": {
			"state": 1042,
			"issue": 102,
			"state_issue_score": -0.8,
			"weight": 1.0
		}
	},
	{
		"model": "campaign_trail.state_issue_score",
		"pk": 3213,
		"fields": {
			"state": 1042,
			"issue": 103,
			"state_issue_score": -0.25,
			"weight": 1.0
		}
	},
	{
		"model": "campaign_trail.state_issue_score",
		"pk": 3214,
		"fields": {
			"state": 1042,
			"issue": 104,
			"state_issue_score": -0.3,
			"weight": 1.5
		}
	},
	{
		"model": "campaign_trail.state_issue_score",
		"pk": 3215,
		"fields": {
			"state": 1043,
			"issue": 100,
			"state_issue_score": -0.9,
			"weight": 1.0
		}
	},
	{
		"model": "campaign_trail.state_issue_score",
		"pk": 3216,
		"fields": {
			"state": 1043,
			"issue": 101,
			"state_issue_score": -0.8,
			"weight": 0.5
		}
	},
	{
		"model": "campaign_trail.state_issue_score",
		"pk": 3217,
		"fields": {
			"state": 1043,
			"issue": 102,
			"state_issue_score": 0.0,
			"weight": 1.0
		}
	},
	{
		"model": "campaign_trail.state_issue_score",
		"pk": 3218,
		"fields": {
			"state": 1043,
			"issue": 103,
			"state_issue_score": -0.4,
			"weight": 1.0
		}
	},
	{
		"model": "campaign_trail.state_issue_score",
		"pk": 3219,
		"fields": {
			"state": 1043,
			"issue": 104,
			"state_issue_score": -0.5,
			"weight": 1.5
		}
	},
	{
		"model": "campaign_trail.state_issue_score",
		"pk": 3220,
		"fields": {
			"state": 1044,
			"issue": 100,
			"state_issue_score": 0.75,
			"weight": 1.0
		}
	},
	{
		"model": "campaign_trail.state_issue_score",
		"pk": 3221,
		"fields": {
			"state": 1044,
			"issue": 101,
			"state_issue_score": 0.8,
			"weight": 0.5
		}
	},
	{
		"model": "campaign_trail.state_issue_score",
		"pk": 3222,
		"fields": {
			"state": 1044,
			"issue": 102,
			"state_issue_score": 0.8,
			"weight": 1.0
		}
	},
	{
		"model": "campaign_trail.state_issue_score",
		"pk": 3223,
		"fields": {
			"state": 1044,
			"issue": 103,
			"state_issue_score": 1.0,
			"weight": 1.0
		}
	},
	{
		"model": "campaign_trail.state_issue_score",
		"pk": 3224,
		"fields": {
			"state": 1044,
			"issue": 104,
			"state_issue_score": 0.9,
			"weight": 1.5
		}
	},
	{
		"model": "campaign_trail.state_issue_score",
		"pk": 3225,
		"fields": {
			"state": 1045,
			"issue": 100,
			"state_issue_score": 0.1,
			"weight": 1.0
		}
	},
	{
		"model": "campaign_trail.state_issue_score",
		"pk": 3226,
		"fields": {
			"state": 1045,
			"issue": 101,
			"state_issue_score": 0.3,
			"weight": 0.5
		}
	},
	{
		"model": "campaign_trail.state_issue_score",
		"pk": 3227,
		"fields": {
			"state": 1045,
			"issue": 102,
			"state_issue_score": 0.8,
			"weight": 1.0
		}
	},
	{
		"model": "campaign_trail.state_issue_score",
		"pk": 3228,
		"fields": {
			"state": 1045,
			"issue": 103,
			"state_issue_score": 0.25,
			"weight": 1.0
		}
	},
	{
		"model": "campaign_trail.state_issue_score",
		"pk": 3229,
		"fields": {
			"state": 1045,
			"issue": 104,
			"state_issue_score": -0.05,
			"weight": 1.5
		}
	},
	{
		"model": "campaign_trail.state_issue_score",
		"pk": 3230,
		"fields": {
			"state": 1046,
			"issue": 100,
			"state_issue_score": 0.4,
			"weight": 1.0
		}
	},
	{
		"model": "campaign_trail.state_issue_score",
		"pk": 3231,
		"fields": {
			"state": 1046,
			"issue": 101,
			"state_issue_score": 0.8,
			"weight": 0.5
		}
	},
	{
		"model": "campaign_trail.state_issue_score",
		"pk": 3232,
		"fields": {
			"state": 1046,
			"issue": 102,
			"state_issue_score": 0.8,
			"weight": 1.0
		}
	},
	{
		"model": "campaign_trail.state_issue_score",
		"pk": 3233,
		"fields": {
			"state": 1046,
			"issue": 103,
			"state_issue_score": 0.3,
			"weight": 1.0
		}
	},
	{
		"model": "campaign_trail.state_issue_score",
		"pk": 3234,
		"fields": {
			"state": 1046,
			"issue": 104,
			"state_issue_score": 0.2,
			"weight": 1.5
		}
	},
	{
		"model": "campaign_trail.state_issue_score",
		"pk": 3240,
		"fields": {
			"state": 1048,
			"issue": 100,
			"state_issue_score": -0.7,
			"weight": 1.0
		}
	},
	{
		"model": "campaign_trail.state_issue_score",
		"pk": 3241,
		"fields": {
			"state": 1048,
			"issue": 101,
			"state_issue_score": -1.0,
			"weight": 1.0
		}
	},
	{
		"model": "campaign_trail.state_issue_score",
		"pk": 3242,
		"fields": {
			"state": 1048,
			"issue": 102,
			"state_issue_score": 0.8,
			"weight": 1.5
		}
	},
	{
		"model": "campaign_trail.state_issue_score",
		"pk": 3243,
		"fields": {
			"state": 1048,
			"issue": 103,
			"state_issue_score": -0.55,
			"weight": 1.0
		}
	},
	{
		"model": "campaign_trail.state_issue_score",
		"pk": 3244,
		"fields": {
			"state": 1048,
			"issue": 104,
			"state_issue_score": -0.625,
			"weight": 1.5
		}
	},
	{
		"model": "campaign_trail.state_issue_score",
		"pk": 3245,
		"fields": {
			"state": 1049,
			"issue": 100,
			"state_issue_score": -0.125,
			"weight": 1.0
		}
	},
	{
		"model": "campaign_trail.state_issue_score",
		"pk": 3246,
		"fields": {
			"state": 1049,
			"issue": 101,
			"state_issue_score": 0.1,
			"weight": 1.5
		}
	},
	{
		"model": "campaign_trail.state_issue_score",
		"pk": 3247,
		"fields": {
			"state": 1049,
			"issue": 102,
			"state_issue_score": 0.8,
			"weight": 1.0
		}
	},
	{
		"model": "campaign_trail.state_issue_score",
		"pk": 3248,
		"fields": {
			"state": 1049,
			"issue": 103,
			"state_issue_score": 0.2,
			"weight": 1.0
		}
	},
	{
		"model": "campaign_trail.state_issue_score",
		"pk": 3249,
		"fields": {
			"state": 1049,
			"issue": 104,
			"state_issue_score": -0.2,
			"weight": 1.5
		}
	},
	{
		"model": "campaign_trail.state_issue_score",
		"pk": 3250,
		"fields": {
			"state": 1050,
			"issue": 100,
			"state_issue_score": -0.85,
			"weight": 1.0
		}
	},
	{
		"model": "campaign_trail.state_issue_score",
		"pk": 3251,
		"fields": {
			"state": 1050,
			"issue": 101,
			"state_issue_score": -1.0,
			"weight": 0.5
		}
	},
	{
		"model": "campaign_trail.state_issue_score",
		"pk": 3252,
		"fields": {
			"state": 1050,
			"issue": 102,
			"state_issue_score": -0.4,
			"weight": 1.0
		}
	},
	{
		"model": "campaign_trail.state_issue_score",
		"pk": 3253,
		"fields": {
			"state": 1050,
			"issue": 103,
			"state_issue_score": -0.25,
			"weight": 1.0
		}
	},
	{
		"model": "campaign_trail.state_issue_score",
		"pk": 3254,
		"fields": {
			"state": 1050,
			"issue": 104,
			"state_issue_score": -0.75,
			"weight": 1.5
		}
	},
	{
		"model": "campaign_trail.state_issue_score",
		"pk": 3255,
		"fields": {
			"state": 1000,
			"issue": 110,
			"state_issue_score": -0.75,
			"weight": 1.5
		}
	}
]