[
	{
		"model": "campaign_trail.issue",
		"pk": 1,
		"fields": {
			"name": "",
			"description": "'",
			"stance_1": "",
			"stance_desc_1": "'",
			"stance_2": "",
			"stance_desc_2": "'",
			"stance_3": "",
			"stance_desc_3": "'",
			"stance_4": "",
			"stance_desc_4": "'",
			"stance_5": "",
			"stance_desc_5": "'",
			"stance_6": "",
			"stance_desc_6": "'",
			"stance_7": "",
			"stance_desc_7": "'",
			"election": 1
		}
	}
]