[
	{
		"model": "campaign_trail.candidate",
		"pk": 1,
		"fields": {
			"first_name": "",
			"last_name": "",
			"election": 1,
			"party": "",
			"state": "",
			"priority": 1,
			"description": "",
			"color_hex": "#000000",
			"secondary_color_hex": "#000000",
			"is_active": 1,
			"image_url": "",
			"electoral_victory_message": "",
			"electoral_loss_message": "",
			"no_electoral_majority_message": "",
			"description_as_running_mate": null,
			"candidate_score": 1.0
		}
	}
]