[
	{
		"model": "campaign_trail.question",
		"pk": 1042,
		"fields": {
			"priority": 1,
			"description": "What kind of campaign do you plan on running?",
			"likelihood": 1.0
		}
	},
	{
		"model": "campaign_trail.question",
		"pk": 1044,
		"fields": {
			"priority": 2,
			"description": "Will you challenge the two Democratic Caucusing Independants for their seats this election?",
			"likelihood": 1.0
		}
	},
	{
		"model": "campaign_trail.question",
		"pk": 1043,
		"fields": {
			"priority": 2,
			"description": "What is your stance on President Donald J. Trump?",
			"likelihood": 1.0
		}
	},
	{
		"model": "campaign_trail.question",
		"pk": 1045,
		"fields": {
			"priority": 3,
			"description": "What will be the biggest message you will push in this election?",
			"likelihood": 1.0
		}
	},
	{
		"model": "campaign_trail.question",
		"pk": 1046,
		"fields": {
			"priority": 4,
			"description": "Today a New York Times Report showed that Social Security will run out of money by the year 2035. What will you say to the American people on this topic?",
			"likelihood": 1.0
		}
	},
	{
		"model": "campaign_trail.question",
		"pk": 1051,
		"fields": {
			"priority": 5,
			"description": "Today, Anthony Kennedy, a long serving Supreme Court Justice has just decided that he will retire from the bench.",
			"likelihood": 1.0
		}
	},
	{
		"model": "campaign_trail.question",
		"pk": 1055,
		"fields": {
			"priority": 6,
			"description": "There is a surplus in advertisement funds. Where will you use them?",
			"likelihood": 1.0
		}
	},
	{
		"model": "campaign_trail.question",
		"pk": 1052,
		"fields": {
			"priority": 6,
			"description": "Earlier this year, Donald Trump set new tarrifs on China. These tariffs have massively increased the China-U.S trade deficit.",
			"likelihood": 1.0
		}
	},
	{
		"model": "campaign_trail.question",
		"pk": 1077,
		"fields": {
			"priority": 6,
			"description": "It has almost been a year since the Las Vegas Mass Shooting. 58 people were killed. What will your stance be on Gun Ownership?",
			"likelihood": 1.0
		}
	},
	{
		"model": "campaign_trail.question",
		"pk": 1057,
		"fields": {
			"priority": 7,
			"description": "Today a caravan from Central America was found to have over 100 kidnapped people. Along with the people, authorities found an obscure amount of Cocaine and Methamphetamines. What will your party say about the drug and immigration crisis in the United States and Central America? ",
			"likelihood": 1.0
		}
	},
	{
		"model": "campaign_trail.question",
		"pk": 1065,
		"fields": {
			"priority": 7,
			"description": "Do you have plans to emphasize a path to universal health care in your campaign?",
			"likelihood": 1.0
		}
	},
	{
		"model": "campaign_trail.question",
		"pk": 1053,
		"fields": {
			"priority": 7,
			"description": "In New Jersey, Republican Senate Candidate Bob Hugin has released attack ads against your Senate Incument Bob Menendez bringing up a debunked scandal from 2012 that Senator Menendez slept with underage prostitutes. What will your reaction?",
			"likelihood": 1.0
		}
	},
	{
		"model": "campaign_trail.question",
		"pk": 1054,
		"fields": {
			"priority": 7,
			"description": "During the Kavanaugh Hearings, a woman named Christine Blasey Ford claims to have been sexually assaulted by nominee Brett Kavanaugh.",
			"likelihood": 1.0
		}
	},
	{
		"model": "campaign_trail.question",
		"pk": 1061,
		"fields": {
			"priority": 7,
			"description": "What are the next steps that the United States should take to combat global warming?",
			"likelihood": 1.0
		}
	},
	{
		"model": "campaign_trail.question",
		"pk": 1069,
		"fields": {
			"priority": 7,
			"description": "The Islamic State of Iraq and Syria has been rampaging the two countries for decades. The United States is a leading force to eradicate them. What will you say about the movement to eradicate ISIS?",
			"likelihood": 1.0
		}
	},
	{
		"model": "campaign_trail.question",
		"pk": 1059,
		"fields": {
			"priority": 7,
			"description": "Former President Barack H. Obama has offered to campaign for you. Where will you send him?",
			"likelihood": 1.0
		}
	},
	{
		"model": "campaign_trail.question",
		"pk": 1068,
		"fields": {
			"priority": 7,
			"description": "Voter ID is going to be a big issue in this election. In North Dakota, the state government passed a law that makes it mandatory to have a home address to vote. This disproportionaly effects Native Americans who live on reservations. What will your responce to this be?",
			"likelihood": 1.0
		}
	},
	{
		"model": "campaign_trail.question",
		"pk": 1066,
		"fields": {
			"priority": -7,
			"description": "Today in the Texas Senate debate, Ted Cruz accused Beto O'Rourke of stoking racial hatred after Beto mentioned an African-American Dallas man named Botham Jean, who was recently killed in his apartment by an off-duty police officer. What will be your response?",
			"likelihood": 1.0
		}
	},
	{
		"model": "campaign_trail.question",
		"pk": 1067,
		"fields": {
			"priority": -6,
			"description": "Donald Trump has campaigned extensively against Democratic candidates in the past few weeks. Especially in key states.",
			"likelihood": 1.0
		}
	},
	{
		"model": "campaign_trail.question",
		"pk": 1071,
		"fields": {
			"priority": -5,
			"description": "If Democrats win the Senate, what will you do about the ongoing allegations of Trump and his Russian collusion?",
			"likelihood": 1.0
		}
	},
	{
		"model": "campaign_trail.question",
		"pk": 1072,
		"fields": {
			"priority": -4,
			"description": "Earlier this year, Donald Trump's former lawyer Micheal Cohen released evidence that Donald Trump had a sexual relationship with Stormy Daniels. It was also found that Trump payed her to keep quiet.",
			"likelihood": 1.0
		}
	},
	{
		"model": "campaign_trail.question",
		"pk": 1073,
		"fields": {
			"priority": -3,
			"description": "Your candidate for North Dakota Senate Heidi Heitkamp, has released a VERY controversial ad which named sexual assault victims without their permission.",
			"likelihood": 1.0
		}
	},
	{
		"model": "campaign_trail.question",
		"pk": 1074,
		"fields": {
			"priority": -3,
			"description": "The Kavanaugh hearings have recently concluded. Many of your senators are planning to vote in different ways. How will Dick Durban whip this vote?",
			"likelihood": 1.0
		}
	},
	{
		"model": "campaign_trail.question",
		"pk": 1075,
		"fields": {
			"priority": -2,
			"description": "As the election season comes to a close, what will be your last statment?",
			"likelihood": 1.0
		}
	},
	{
		"model": "campaign_trail.question",
		"pk": 1076,
		"fields": {
			"priority": -1,
			"description": "Where will you send your surrogates and divert advertisment funding to on the last day of the campaign?",
			"likelihood": 1.0
		}
	}
]